[
    {
        "idTipoBusqueda": 1,
        "cdTipoBusqueda": "TD",
        "nbTipoBusqueda": "TODO"
    },
    {
        "idTipoBusqueda": 2,
        "cdTipoBusqueda": "FC",
        "nbTipoBusqueda": "FECHA"
    }
  
]