[
    {
        "idTipoBusqueda": 1,
        "cdTipoBusqueda": "TD",
        "nbTipoBusqueda": "TODO"
    },
    {
        "idTipoBusqueda": 2,
        "cdTipoBusqueda": "SC",
        "nbTipoBusqueda": "SUCURSAL"
    },
    {
        "idTipoBusqueda": 3,
        "cdTipoBusqueda": "FC",
        "nbTipoBusqueda": "FECHA"
    }    
]