[
	{
		"idStatus": 1,
		"nbStatus": "Programado",
		"cdStatus": "PR"
	},
	{
		"idStatus": 2,
		"nbStatus": "Pendiente",
		"cdStatus": "PE"
	},
	{
		"idStatus": 3,
		"nbStatus": "Retrazado",
		"cdStatus": "EX"
	},
	{
		"idStatus": 4,
		"nbStatus": "Entrega",
		"cdStatus": "PO"
	}
]