[
    {
        "idTipoBusqueda": 1,
        "cdTipoBusqueda": "SC",
        "nbTipoBusqueda": "SUCURSAL"
    },
    {
        "idTipoBusqueda": 2,
        "cdTipoBusqueda": "FC",
        "nbTipoBusqueda": "FECHA"
    },
    {
        "idTipoBusqueda": 3,
        "cdTipoBusqueda": "ST",
        "nbTipoBusqueda": "ESTATUS"
    }
    
]